Project 1
…
Create summary statistics

Firstly I created a new variable named Sleepless_Wonders to describe the number of people obtaining insufficient amounts of sleep out of the population of people reported per city/observation.

organizzzed <- joinedData %>% group_by(State_Abbreviation) %>% 
    select(3:6) %>% summarize_all(mean, na.rm = T) %>% arrange(PMHD) %>% 
    mutate(Sleepless_Wonders = (IS * POP))
organizzzed

## # A tibble: 51 x 6
##    State_Abbreviation  PMHD    LE    IS     POP Sleepless_Wonders
##    <chr>              <dbl> <dbl> <dbl>   <dbl>             <dbl>
##  1 ND                  2.82  79.5 0.280  27978.             7845.
##  2 MN                  3.04  80.3 0.291 126741.            36869.
##  3 SD                  3.05  77.8 0.262  25960.             6797.
##  4 NE                  3.08  79.4 0.278  40853.            11365.
##  5 HI                  3.21  81.9 0.399 475846            189748.
##  6 IA                  3.24  79.3 0.274  62914.            17242.
##  7 KS                  3.29  77.8 0.295  54965.            16222.
##  8 MT                  3.45  78.4 0.273  36859.            10047.
##  9 WY                  3.47  79.4 0.298  48276.            14364.
## 10 CO                  3.54  80.8 0.269 172528.            46476.
## # ... with 41 more rows
…
joinedData %>% group_by(State_Abbreviation) %>% select(3:4) %>% 
    summarize_all(funs(min, max, var, sd), na.rm = T)

## # A tibble: 51 x 9
##    State_Abbreviat~ PMHD_min LE_min PMHD_max LE_max PMHD_var LE_var PMHD_sd
##    <chr>               <dbl>  <dbl>    <dbl>  <dbl>    <dbl>  <dbl>   <dbl>
##  1 AK                   2.57   67.2     5.88   92.5  0.607   27.4    0.779 
##  2 AL                   3.86   70.2     5.34   80.4  0.0887   2.87   0.298 
##  3 AR                   4.14   70.6     5.35   79.6  0.0550   2.78   0.235 
##  4 AZ                   3.67   72.4     5.50   83.2  0.281    9.70   0.530 
##  5 CA                   2.90   74.5     4.37   90.0  0.115    7.64   0.340 
##  6 CO                   2.93   74.5     4.38   98.0  0.110   18.5    0.332 
##  7 CT                   3.21   78.8     4.04   82.6  0.0841   1.21   0.290 
##  8 DC                   3.54   78.4     3.54   78.4  0        0      0     
##  9 DE                   3.63   77.8     3.76   78.7  0.00298  0.159  0.0546
## 10 FL                   3.33   68.0     4.75   85.9  0.103    7.67   0.321 
## # ... with 41 more rows, and 1 more variable: LE_sd <dbl>

joinedData %>% group_by(State_Abbreviation) %>% select(5:6) %>% 
    summarize_all(funs(min, max, var, sd), na.rm = T)

## # A tibble: 51 x 9
##    State_Abbreviati~ IS_min POP_min IS_max POP_max  IS_var POP_var  IS_sd POP_sd
##    <chr>              <dbl>   <dbl>  <dbl>   <dbl>   <dbl>   <dbl>  <dbl>  <dbl>
##  1 AK                 0.281     605  0.376  7.40e5 7.22e-4 2.03e10 0.0269 1.42e5
##  2 AL                 0.333    8330  0.459  4.87e6 7.87e-4 3.50e11 0.0281 5.92e5
##  3 AR                 0.296    5247  0.400  3.00e6 5.43e-4 1.19e11 0.0233 3.45e5
##  4 AZ                 0.293    9455  0.355  7.02e6 4.27e-4 3.79e12 0.0207 1.95e6
##  5 CA                 0.269    1120  0.374  3.95e7 6.25e-4 2.77e13 0.0250 5.27e6
##  6 CO                 0.230     715  0.331  5.61e6 4.84e-4 5.00e11 0.0220 7.07e5
##  7 CT                 0.289  116359  0.353  3.59e6 3.99e-4 1.22e12 0.0200 1.10e6
##  8 DC                 0.362  693972  0.362  6.94e5 0.      0.      0      0.    
##  9 DE                 0.319  176824  0.368  9.62e5 6.11e-4 1.32e11 0.0247 3.63e5
## 10 FL                 0.254    8242  0.410  2.10e7 9.97e-4 6.53e12 0.0316 2.55e6
## # ... with 41 more rows

Grouping by state, I was able to count the number of observations that fit for each, which revealed that Texas had a disproportionally large amount of data contributing to its means (155) in comparison to a state such as Delaware (4).

joinedData %>% select(State_Abbreviation, Digit_Code) %>% group_by(State_Abbreviation) %>% 
    summarize(count = n()) %>% arrange(desc(count))

## # A tibble: 51 x 2
##    State_Abbreviation count
##    <chr>              <int>
##  1 TX                   255
##  2 GA                   160
##  3 VA                   134
##  4 KY                   121
##  5 MO                   116
##  6 KS                   106
##  7 IL                   103
##  8 NC                   101
##  9 IA                   100
## 10 TN                    96
## # ... with 41 more rows
…
